-------------------------------------------------------------------------------
Test set: dvl.srg.utils.ReadAdjListHelperTest
-------------------------------------------------------------------------------
Tests run: 1, Failures: 0, Errors: 0, Skipped: 0, Time elapsed: 0.036 sec
